ARM-Project/ARM-Project.sim/sim_1/behav/xsim/simulate.log
Time resolution is 1 ps

******* BEGIN TEST RESULTS *******


Test Case 1: | (10 + 15)
+++ Step 1: Pass: |alu_result| time = 5 ns | er = 25 | ar = 25 | er_bits = 64 | ar_bits = 64 +++
+++ Step 2: Pass: |zero| time = 5 ns | er = 0 | ar = 0 | er_bits = 1 | ar_bits = 1 +++

Test Case 2: | (10 - 15)
+++ Step 1: Pass: |alu_result| time = 15 ns | er = -5 | ar = -5 | er_bits = 64 | ar_bits = 64 +++
+++ Step 2: Pass: |zero| time = 15 ns | er = 0 | ar = 0 | er_bits = 1 | ar_bits = 1 +++

Test Case 3: | (10 & 15)
+++ Step 1: Pass: |alu_result| time = 20 ns | er = 10 | ar = 10 | er_bits = 64 | ar_bits = 64 +++
+++ Step 2: Pass: |zero| time = 20 ns | er = 0 | ar = 0 | er_bits = 1 | ar_bits = 1 +++

Test Case 4: | (10 | 15)
+++ Step 1: Pass: |alu_result| time = 25 ns | er = 15 | ar = 15 | er_bits = 64 | ar_bits = 64 +++
+++ Step 2: Pass: |zero| time = 25 ns | er = 0 | ar = 0 | er_bits = 1 | ar_bits = 1 +++

Test Case 5: | PASS b=15
+++ Step 1: Pass: |alu_result| time = 30 ns | er = 15 | ar = 15 | er_bits = 64 | ar_bits = 64 +++
+++ Step 2: Pass: |zero| time = 30 ns | er = 0 | ar = 0 | er_bits = 1 | ar_bits = 1 +++

Test Case 6: | PASS b=0
+++ Step 1: Pass: |alu_result| time = 35 ns | er = 0 | ar = 0 | er_bits = 64 | ar_bits = 64 +++
+++ Step 2: Pass: |zero| time = 35 ns | er = 1 | ar = 1 | er_bits = 1 | ar_bits = 1 +++

Test Case 7: | (65536 + 65536)
+++ Step 1: Pass: |alu_result| time = 40 ns | er = 131072 | ar = 131072 | er_bits = 64 | ar_bits = 64 +++
+++ Step 2: Pass: |zero| time = 40 ns | er = 0 | ar = 0 | er_bits = 1 | ar_bits = 1 +++

Test Case 8: | (65536 - 65536)
+++ Step 1: Pass: |alu_result| time = 50 ns | er = 0 | ar = 0 | er_bits = 64 | ar_bits = 64 +++
+++ Step 2: Pass: |zero| time = 50 ns | er = 1 | ar = 1 | er_bits = 1 | ar_bits = 1 +++

Pass Count = 16
Fail Count = 0

******* END TEST RESULTS *******

$finish called at time : 50 ns : File "C:/Users/reese_ford1/Documents/GitHub/ARM-Lab/ARM-Lab/code/3_execute/alu_test.sv" Line 134
