ARM-Project/ARM-Project.sim/sim_1/behav/xsim/simulate.log
Time resolution is 1 ps

******* BEGIN TEST RESULTS *******

Test Case 1
LDUR X9, [X22, #240]
+++ Step 1: Pass: |rn_num| time = 2 ns | er = 22 | ar = 22 | er_bits = 5 | ar_bits = 5 +++
+++ Step 2: Pass: |rd_num| time = 2 ns | er = 9 | ar = 9 | er_bits = 5 | ar_bits = 5 +++
+++ Step 3: Pass: |address| time = 2 ns | er = 240 | ar = 240 | er_bits = 9 | ar_bits = 9 +++
+++ Step 4: Pass: |opcode| time = 2 ns | er = 1986 | ar = 1986 | er_bits = 11 | ar_bits = 11 +++

Test Case 2
ADD X10, X21, X9
+++ Step 1: Pass: |rm_num| time = 12 ns | er = 9 | ar = 9 | er_bits = 5 | ar_bits = 5 +++
+++ Step 2: Pass: |rn_num| time = 12 ns | er = 21 | ar = 21 | er_bits = 5 | ar_bits = 5 +++
+++ Step 3: Pass: |rd_num| time = 12 ns | er = 10 | ar = 10 | er_bits = 5 | ar_bits = 5 +++
+++ Step 4: Pass: |opcode| time = 12 ns | er = 1112 | ar = 1112 | er_bits = 11 | ar_bits = 11 +++

Test Case 3
STUR X10, [X23, #64]
+++ Step 1: Pass: |rn_num| time = 22 ns | er = 23 | ar = 23 | er_bits = 5 | ar_bits = 5 +++
+++ Step 2: Pass: |rd_num| time = 22 ns | er = 10 | ar = 10 | er_bits = 5 | ar_bits = 5 +++
+++ Step 3: Pass: |address| time = 22 ns | er = 64 | ar = 64 | er_bits = 9 | ar_bits = 9 +++
+++ Step 4: Pass: |opcode| time = 22 ns | er = 1984 | ar = 1984 | er_bits = 11 | ar_bits = 11 +++

Pass Count = 12
Fail Count = 0

******* END TEST RESULTS *******

$finish called at time : 30 ns : File "C:/Users/reese_ford1/Documents/GitHub/ARM-Lab/ARM-Lab/code/2_decode/instr_parse_test.sv" Line 161
